Predicting IMDB Ratings
…
One problem crops up immediately: many movie budgets are given in units of foreign currency. Simply converting to numeric would give misleading values. I decide to just NA them for now.

ratings_raw %>% filter(if_any(c(budget, ends_with("income")), ~str_detect(.x, "^[^[$\\d]]") & !is.na(.x)))

# A tibble: 7,174 x 22
   imdb_title_id title  original_title   year date_published genre duration country language director writer production_comp~ actors  description avg_vote votes budget usa_gross_income
   <chr>         <chr>  <chr>           <dbl> <chr>          <chr>    <dbl> <chr>   <chr>    <chr>    <chr>  <chr>            <chr>   <chr>          <dbl> <dbl> <chr>  <chr>           
 1 tt0002445     Quo V~ Quo Vadis?       1913 1913-03-01     Dram~      120 Italy   Italian  Enrico ~ Henry~ Societ Italian~ Amleto~ "An epic I~      6.2   273 ITL 4~ <NA>            
 2 tt0002452     Indep~ Independenta R~  1912 1912-09-01     Hist~      120 Romania <NA>     Aristid~ Arist~ Societatea Film~ Aristi~ "The movie~      6.7   198 ROL 4~ <NA>            
 3 tt0008663     Terje~ Terje Vigen      1917 1917-01-29     Dram~       48 Sweden  <NA>     Victor ~ Henri~ Svenska Biograf~ Victor~ "Terje Vig~      7.4  1508 SEK 6~ <NA>            
 4 tt0008879     I pro~ Berg-Ejvind oc~  1918 1919           Drama      136 Sweden  <NA>     Victor ~ Victo~ Svenska Biograf~ Victor~ "A strange~      7.3  1518 SEK 1~ <NA>            
 5 tt0010755     Il ca~ Sngen om den ~  1919 1919-04-14     Dram~      145 Sweden  <NA>     Mauritz~ Tom B~ Svenska Biograf~ Lars H~ "Olof Kosk~      6.9   157 SEK 1~ <NA>            
 6 tt0010969     L'atl~ L'Atlantide      1921 1921-05-28     Adve~      136 France~ French   Jacques~ Pierr~ International e~ Jean A~ "Two men, ~      6.7   315 FRF 1~ <NA>            
 7 tt0011440     Marke~ Markens grde    1921 1921-12-02     Drama      107 Norway  <NA>     Gunnar ~ Knut ~ Christiana Film  Amund ~ "After the~      6.6   195 NOK 2~ <NA>            
 8 tt0012134     Eldor~ Eldorado         1921 1921-10-28     Drama      100 France  French   Marcel ~ Marce~ Gaumont Srie P~ ve Fr~ "Sibilla i~      7     362 FRF 2~ <NA>            
 9 tt0014925     La za~ Forbidden Para~  1924 1924-11-30     Come~       69 USA     <NA>     Ernst L~ Lajos~ Famous Players-~ Pola N~ "Alexei sa~      6.1   125 <NA>   EUR 252076      
10 tt0015014     Futur~ L'inhumaine      1924 1924-12-12     Adve~      135 France  French   Marcel ~ Pierr~ Cingraphic      Jaque ~ "Claire Le~      7.2   712 FRF 2~ <NA>            
# ... with 7,164 more rows, and 4 more variables: worlwide_gross_income <chr>, metascore <dbl>, reviews_from_users <dbl>, reviews_from_critics <dbl>
…
ratings %>% slice_max(n = 25, order_by = reviews_from_users) %>% 
  select(title, worlwide_gross_income, genre, reviews_from_users)

# A tibble: 25 x 4
   title                                             worlwide_gross_income genre                      reviews_from_users
   <chr>                                                             <dbl> <chr>                                   <dbl>
 1 Joker                                                        1074251311 Crime, Drama, Thriller                  10472
 2 Avengers: Endgame                                            2797800564 Action, Adventure, Drama                 8869
 3 The Shawshank Redemption                                       28815245 Drama                                    8232
 4 Dil Bechara                                                       42248 Comedy, Drama, Romance                   7639
 5 Star Wars: Episode IX - The Rise of Skywalker                1074144248 Action, Adventure, Fantasy               7553
 6 Captain Marvel                                               1128276090 Action, Adventure, Sci-Fi                7207
 7 The Dark Knight                                              1005455211 Action, Crime, Drama                     6938
 8 Star Wars: Episode VIII - The Last Jedi                      1332540187 Action, Adventure, Fantasy               6718
 9 The Lord of the Rings: The Fellowship of the Ring             887934303 Action, Adventure, Drama                 5392
10 Mrs. Serial Killer                                                   NA Crime, Drama, Thriller                   5261
# ... with 15 more rows
…
Director

The directors with the highest sums of average rating worked mostly in Golden Age Hollywood - makes sense, as they made many well-received movies.

ratings %>% count(director, wt = avg_vote) %>% 
arrange(-n)

# A tibble: 34,734 x 2
   director             n
   <chr>            <dbl>
 1 Michael Curtiz    556.
 2 <NA>              536.
 3 Lesley Selander   485.
 4 Lloyd Bacon       455 
 5 John Ford         450.
 6 Richard Thorpe    426.
 7 Jess Franco      410.
 8 William Beaudine  410.
 9 Raoul Walsh       402 
10 Gordon Douglas    395.
# ... with 34,724 more rows
…
Interestingly, the movies with the highest ratios of user to critic reviews mostly come from India. IMDB probably undersamples reviews in the foreign-language press, but Indian users are under no such restriction.

ratings %>% filter(reviews_from_critics >0) %>% 
  arrange(-(reviews_from_users / reviews_from_critics))

# A tibble: 74,058 x 21
   imdb_title_id title  year date_published genre duration country language director writer production_comp~ actors description avg_vote  votes budget usa_gross_income worlwide_gross_~
   <chr>         <chr> <dbl> <chr>          <chr>    <dbl> <chr>   <chr>    <chr>    <chr>  <chr>            <chr>  <chr>          <dbl>  <dbl>  <dbl>            <dbl>            <dbl>
 1 tt7743400     Jhal~  2019 2019-11-14     Drama      104 India   Hindi    Brahman~ Tanvi~ Mobius Films     Boman~ "In a twin~      8.8   1131     NA               NA             8488
 2 tt2073600     Lad:~  2013 2017-04-05     Drama       96 UK      English  Dan Har~ Dan H~ <NA>             Brett~ "A teenage~      7.9   1874 160000               NA               NA
 3 tt11730940    Bamf~  2020 2020-04-10     Roma~      102 India   Hindi    Ranjan ~ Ranja~ Jar Pictures     Adity~ "A passion~      7.4   1522     NA               NA               NA
 4 tt11134856    Chha~  2019 2019-10-18     Drama       90 India   Hindi    Sameer ~ Samee~ Saregama India   Siddh~ "Chappad P~      6.3    732     NA               NA               NA
 5 tt10230426    Mrs.~  2020 2020-05-01     Crim~      106 India   Hindi, ~ Shirish~ Shiri~ Three's Company~ Jacqu~ "When a do~      4.9  10943     NA               NA               NA
 6 tt8110330     Dil ~  2020 2020-07-24     Come~      101 India   Hindi    Mukesh ~ Shash~ Fox STAR Studios Susha~ "The emoti~      8.8 101686     NA               NA            42248
 7 tt4172402     Auda~  2015 2015-06-24     Drama       55 USA     English  Eddie R~ Ray C~ Living Waters P~ Travi~ "\"Audacit~      3.9   4293     NA               NA               NA
 8 tt6642396     Jatt~  2017 2017-05-19     Come~      139 India   Hindi    Honeypr~ Gurme~ Hakikat Enterta~ Amard~ "A teacher~      5.9   3325     NA               NA            13533
 9 tt5944812     Dead~  2017 2017-09-13     Adve~      120 Austra~ English  Michal ~ Micha~ Morning Starr P~ Justi~ "Dead Sunr~      4.1   1168     NA               NA               NA
10 tt1340778     I Am~  2010 2012-08-31     Come~      118 India   Hindi    Saurabh~ <NA>   Planman Motion ~ Rajat~ "The perks~      6.1   1169     NA               NA               NA
# ... with 74,048 more rows, and 3 more variables: metascore <dbl>, reviews_from_users <dbl>, reviews_from_critics <dbl>
…
[[1]]
# A tibble: 25 x 5
   genre       avg_vote metascore reviews_from_users reviews_from_critics
   <chr>          <dbl>     <dbl>              <dbl>                <dbl>
 1 Documentary     7.3      NaN                  9                   11.5
 2 Biography       6.72      63.0              108.                  73.5
 3 Film-Noir       6.68      86.5               47.8                 24.6
 4 War             6.64      65.0               68.1                 32.6
 5 History         6.63      63.8               83.8                 49.5
 6 Music           6.45      61.6               69.1                 44.0
 7 News            6.4      NaN                  3                    3  
 8 Drama           6.36      61.8               65.7                 38.3
 9 Musical         6.30      62.5               59.5                 18.9
10 Animation       6.28      61.6               74.1                 43.8
# ... with 15 more rows

[[2]]
# A tibble: 195 x 5
   country                       avg_vote metascore reviews_from_users reviews_from_critics
   <chr>                            <dbl>     <dbl>              <dbl>                <dbl>
 1 Libya                             8.32     NaN               101.                  24.6 
 2 Malawi                            7.6       68               157                   46   
 3 Moldova                           7.56     NaN                 1.81                 3.33
 4 Uganda                            7.48     NaN                77.7                 12.2 
 5 Kuwait                            7.32      73                61.4                 21.1 
 6 Soviet Union                      7.20      90                13.5                  5.41
 7 Sri Lanka                         7.19      70                 7.76                 2.90
 8 Botswana                          7.17      73               118                   33   
 9 Bhutan                            7.11      64.2              17.5                 29.5 
10 Holy See (Vatican City State)     7.1      NaN                 2                    2   
# ... with 185 more rows

[[3]]
# A tibble: 268 x 5
   language    avg_vote metascore reviews_from_users reviews_from_critics
   <chr>          <dbl>     <dbl>              <dbl>                <dbl>
 1 Quenya          8.9       94               3718                  353  
 2 Himachali       8.7      NaN                  6                    0  
 3 Maithili        8.1      NaN                  3                    6  
 4 Pawnee          8         74.4             1160.                 433. 
 5 Mende           7.82      63.8              607.                 156. 
 6 Old English     7.77      75.4             1983.                 300. 
 7 Sindarin        7.76      91               2437.                 227. 
 8 Hmong           7.7       78.5              508                  208  
 9 Abkhazian       7.61     NaN                 10.3                 55.3
10 Minangkabau     7.6      NaN                 10                    2  
# ... with 258 more rows
…
